%YAML 1.1
%TAG !u! tag:unity3d.com,2011:
--- !u!1045 &1
EditorBuildSettings:
  m_ObjectHideFlags: 0
  serializedVersion: 2
  m_Scenes:
  - enabled: 1
    path: Assets/Opel/Scenes/AR-scene.unity
    guid: a540dbdd87d5aab448dff011e6a4cb0d
  m_configObjects: {}
