%YAML 1.1
%TAG !u! tag:unity3d.com,2011:
--- !u!114 &11400000
MonoBehaviour:
  m_ObjectHideFlags: 0
  m_CorrespondingSourceObject: {fileID: 0}
  m_PrefabInstance: {fileID: 0}
  m_PrefabAsset: {fileID: 0}
  m_GameObject: {fileID: 0}
  m_Enabled: 1
  m_EditorHideFlags: 0
  m_Script: {fileID: 11500000, guid: 202a2c796e7795b42920f77415fd4ef2, type: 3}
  m_Name: 3_air_bag_belt_tensioners
  m_EditorClassIdentifier: 
  m_Name: 
  icon: {fileID: 21300000, guid: bb0f7fd10d972e04b91a9cf85b6ba54e, type: 3}
  manualPage: {fileID: 21300000, guid: cda011fcc0d3059498001a9e2193c4e6, type: 3}
  htmlFile: {fileID: 0}
