%YAML 1.1
%TAG !u! tag:unity3d.com,2011:
--- !u!1001 &8261920360827011132
PrefabInstance:
  m_ObjectHideFlags: 0
  serializedVersion: 2
  m_Modification:
    m_TransformParent: {fileID: 0}
    m_Modifications:
    - target: {fileID: 8924694424717193182, guid: 92eeacdc5d336e84493d60d82938a173,
        type: 3}
      propertyPath: m_Name
      value: DoorHandle
      objectReference: {fileID: 0}
    - target: {fileID: 8924694424717193183, guid: 92eeacdc5d336e84493d60d82938a173,
        type: 3}
      propertyPath: m_LocalPosition.x
      value: 0
      objectReference: {fileID: 0}
    - target: {fileID: 8924694424717193183, guid: 92eeacdc5d336e84493d60d82938a173,
        type: 3}
      propertyPath: m_LocalPosition.y
      value: 0
      objectReference: {fileID: 0}
    - target: {fileID: 8924694424717193183, guid: 92eeacdc5d336e84493d60d82938a173,
        type: 3}
      propertyPath: m_LocalPosition.z
      value: 0
      objectReference: {fileID: 0}
    - target: {fileID: 8924694424717193183, guid: 92eeacdc5d336e84493d60d82938a173,
        type: 3}
      propertyPath: m_LocalRotation.x
      value: 0
      objectReference: {fileID: 0}
    - target: {fileID: 8924694424717193183, guid: 92eeacdc5d336e84493d60d82938a173,
        type: 3}
      propertyPath: m_LocalRotation.y
      value: 0
      objectReference: {fileID: 0}
    - target: {fileID: 8924694424717193183, guid: 92eeacdc5d336e84493d60d82938a173,
        type: 3}
      propertyPath: m_LocalRotation.z
      value: 0
      objectReference: {fileID: 0}
    - target: {fileID: 8924694424717193183, guid: 92eeacdc5d336e84493d60d82938a173,
        type: 3}
      propertyPath: m_LocalRotation.w
      value: 1
      objectReference: {fileID: 0}
    - target: {fileID: 8924694424717193183, guid: 92eeacdc5d336e84493d60d82938a173,
        type: 3}
      propertyPath: m_RootOrder
      value: 0
      objectReference: {fileID: 0}
    - target: {fileID: 8924694424717193183, guid: 92eeacdc5d336e84493d60d82938a173,
        type: 3}
      propertyPath: m_LocalEulerAnglesHint.x
      value: 0
      objectReference: {fileID: 0}
    - target: {fileID: 8924694424717193183, guid: 92eeacdc5d336e84493d60d82938a173,
        type: 3}
      propertyPath: m_LocalEulerAnglesHint.y
      value: 0
      objectReference: {fileID: 0}
    - target: {fileID: 8924694424717193183, guid: 92eeacdc5d336e84493d60d82938a173,
        type: 3}
      propertyPath: m_LocalEulerAnglesHint.z
      value: 0
      objectReference: {fileID: 0}
    - target: {fileID: 434698626599215886, guid: 92eeacdc5d336e84493d60d82938a173,
        type: 3}
      propertyPath: m_text
      value: Door Handle
      objectReference: {fileID: 0}
    - target: {fileID: 434698626599215886, guid: 92eeacdc5d336e84493d60d82938a173,
        type: 3}
      propertyPath: m_havePropertiesChanged
      value: 0
      objectReference: {fileID: 0}
    - target: {fileID: 434698626599215886, guid: 92eeacdc5d336e84493d60d82938a173,
        type: 3}
      propertyPath: m_isInputParsingRequired
      value: 0
      objectReference: {fileID: 0}
    - target: {fileID: 434698626599215886, guid: 92eeacdc5d336e84493d60d82938a173,
        type: 3}
      propertyPath: m_textInfo.characterCount
      value: 11
      objectReference: {fileID: 0}
    - target: {fileID: 434698626599215886, guid: 92eeacdc5d336e84493d60d82938a173,
        type: 3}
      propertyPath: m_textInfo.spaceCount
      value: 1
      objectReference: {fileID: 0}
    - target: {fileID: 434698626599215886, guid: 92eeacdc5d336e84493d60d82938a173,
        type: 3}
      propertyPath: m_textInfo.wordCount
      value: 2
      objectReference: {fileID: 0}
    m_RemovedComponents: []
  m_SourcePrefab: {fileID: 100100000, guid: 92eeacdc5d336e84493d60d82938a173, type: 3}
